\relax 
\global\@namedef{num@address}{2}
\global\@namedef{num@author}{2}
\thanksnewlabel{au1@email}{{cristovao.casagrande@gmail.com}{1}}
\thanksnewlabel{au2@email}{{cristovao.casagrande@gmail.com}{1}}
\thanksnewlabel{au1thanks}{{*}{1}}
\thanksnewlabel{n1thanks}{{\textdagger }{1}}
\@writefile{toc}{\contentsline {section}{Abstract}{1}}
\newlabel{eqexpmuts}{{1}{1}}
\citation{koon}
\citation{khar}
\citation{zvai}
\citation{xjon}
\citation{marg}
\bibstyle{bmc-mathphys}
\bibdata{bmc_article}
\bibcite{koon}{1}
\bibcite{oreg}{2}
\bibcite{khar}{3}
\bibcite{zvai}{4}
\bibcite{xjon}{5}
\bibcite{schn}{6}
\bibcite{pond}{7}
\bibcite{smith}{8}
\bibcite{marg}{9}
\bibcite{hunn}{10}
\bibcite{advi}{11}
\bibcite{koha}{12}
\bibcite{mouse}{13}
\thanksnewlabel{aff1thanks}{{1}{2}}
\thanksnewlabel{aff2thanks}{{2}{2}}
\@writefile{lof}{\contentsline {figure}{\numberline {1}{\ignorespaces {\mathversion  {bold}\bfseries  Sample figure title.} A short description of the figure content should go here.}}{2}}
\@writefile{lof}{\contentsline {figure}{\numberline {2}{\ignorespaces {\mathversion  {bold}\bfseries  Sample figure title.} Figure legend text.}}{2}}
\@writefile{lot}{\contentsline {table}{\numberline {1}{\ignorespaces Sample table title. This is where the description of the table should go.}}{2}}
\newlabel{LastPage}{{}{3}}
