\contentsline {section}{\numberline {1}Introduction}{2}
\contentsline {section}{\numberline {2}Access}{3}
\contentsline {section}{\numberline {3}Install}{4}
\contentsline {section}{\numberline {4}Arquivos de Entrada}{5}
\contentsline {section}{\numberline {5}Ferramentas Dispon\'ives}{8}
\contentsline {subsection}{\numberline {5.1}Produ\c {c}\~ao e Otimiza\c {c}\~ao de Histograma 1D e 2D}{8}
\contentsline {subsubsection}{\numberline {5.1.1}Scott’s rule}{9}
\contentsline {subsubsection}{\numberline {5.1.2}Freedman-Diaconis rule}{9}
\contentsline {subsubsection}{\numberline {5.1.3}M\'etodo Shimazaki}{9}
\contentsline {subsection}{\numberline {5.2}Free Energy Surface}{12}
\contentsline {subsubsection}{\numberline {5.2.1}Getting structures from Free Energy Surface}{17}
\contentsline {section}{\numberline {6}ilustracao}{17}
