\relax 
\@writefile{toc}{\contentsline {section}{\numberline {1}Introduction}{2}}
\@writefile{toc}{\contentsline {section}{\numberline {2}Access}{3}}
\@writefile{toc}{\contentsline {section}{\numberline {3}Install}{4}}
\citation{GROMACS}
\@writefile{toc}{\contentsline {section}{\numberline {4}Arquivos de Entrada}{5}}
\@writefile{lof}{\contentsline {figure}{\numberline {1}{\ignorespaces  {\bf  Arquivos de entrada} Para enviar um arquivo \'e preciso: descrever o tipo de arquivo, selecionar o arquivo e dar um nome para identificar o tipo de dado que esta no arquivo. (a) e (b) s\~ao locais para arquivos contendo um tipo de dado cada, por exemplo, um arquivo com uma coluna. A linha destacada em (c) \'e o local de entrada de um arquivo contendo dois tipos de dados, por exemplo, um arquivo com duas colunas. }}{6}}
\newlabel{inputfile}{{1}{6}}
\@writefile{lof}{\contentsline {figure}{\numberline {2}{\ignorespaces  {\bf  Arquivos de saida do GROMACS} Arquivos de saida do software GROMACS pode ser enviados diretamente para o software BHT. }}{7}}
\newlabel{gromacs_output}{{2}{7}}
\@writefile{toc}{\contentsline {section}{\numberline {5}Ferramentas Dispon\'ives}{8}}
\@writefile{toc}{\contentsline {subsection}{\numberline {5.1}Produ\c {c}\~ao e Otimiza\c {c}\~ao de Histograma 1D e 2D}{8}}
\citation{Scott}
\citation{FreedmanDiaconis}
\citation{Shimazaki}
\@writefile{toc}{\contentsline {subsubsection}{\numberline {5.1.1}Scott’s rule}{9}}
\newlabel{eqexpmuts}{{1}{9}}
\@writefile{toc}{\contentsline {subsubsection}{\numberline {5.1.2}Freedman-Diaconis rule}{9}}
\newlabel{eqexpmuts}{{2}{9}}
\@writefile{toc}{\contentsline {subsubsection}{\numberline {5.1.3}M\'etodo Shimazaki}{9}}
\newlabel{eqexpmuts}{{3}{9}}
\newlabel{eqexpmuts}{{5}{10}}
\@writefile{lof}{\contentsline {figure}{\numberline {3}{\ignorespaces  {\bf  Configura\c {c}\~ao para a produ\c {c}\~ao e otimiza\c {c}\~ao de histograma 1D} (a) Bot\~ao para executar a otimiza\c {c}\~ao e plotar o histograma. (b) Box para selicionar se ser\'a utilizado a busca autom\'atica pelos maximos e minimos no dado de entrada ou se o usuario quer usar especificos valores de maximo e minimo. (c) Local de saida dos dados. }}{10}}
\newlabel{estbinwidth}{{3}{10}}
\@writefile{lof}{\contentsline {figure}{\numberline {4}{\ignorespaces  {\bf  Resultado de produ\c {c}\~ao e otimiza\c {c}\~ao de histograma 1D} Histogramas otimizados pelo software BHT. O programa utiliza duas regras para otmizar o mesmo histograma possibilitando mais op\c {c}\~oes sobre qual regra usar para otimizar o histograma. Na primeira coluna temos dois histogramas, cada um otimizado por uma regra, para os dados de Raio de giro da proteina\_x e na segunda coluna nos temos dois histogramas, cada um otimizado por uma regra, para os dados de RMSD da proteina\_y. }}{11}}
\newlabel{histo}{{4}{11}}
\citation{Gruebele2002161}
\citation{gromacs_manual}
\citation{Dinner2000331}
\citation{fes1}
\citation{fes2}
\citation{fes3}
\@writefile{toc}{\contentsline {subsection}{\numberline {5.2}Free Energy Surface}{12}}
\newlabel{eqexpmuts}{{6}{12}}
\@writefile{lof}{\contentsline {figure}{\numberline {5}{\ignorespaces  {\bf  Compute FES} (a) Dropdown box with three options to set the bins. (b) The maximum and minimum in the dataset to compute the FES. (c) Temperature to compute the FES. (d) The button to begin compute the FES. (e) local of output information about the FES computed. (f) Setting to export the result. (g) Setting to export the plot of FES. }}{14}}
\newlabel{computefes}{{5}{14}}
\@writefile{lof}{\contentsline {figure}{\numberline {6}{\ignorespaces  {\bf  Contour plot style} FES ploted with contour plot style. This plot can be saved in all formats and can be handled. }}{15}}
\newlabel{plot1}{{6}{15}}
\@writefile{lof}{\contentsline {figure}{\numberline {7}{\ignorespaces  {\bf  Histogram 2D style} FES ploted with histogram 2D style. This plot can be saved in all formats and can be handled. }}{16}}
\newlabel{plot2}{{7}{16}}
\@writefile{toc}{\contentsline {subsubsection}{\numberline {5.2.1}Getting structures from Free Energy Surface}{17}}
\@writefile{toc}{\contentsline {section}{\numberline {6}ilustracao}{17}}
\@writefile{lof}{\contentsline {figure}{\numberline {8}{\ignorespaces  {\bf  Getting conformational states from FES with software BHT.} (a) It allows the user select the region that will be used. (b) It has three options of the how compute the point that will be used to sort the all points. The options are: Mean, Mode and Median. (c) In a region can be too points and here the user can select how many points will be exported. For example, if a region selected has 30 points and the user want export 10 points, the first 10 points will be exported. (d) Place where will be put the results. }}{18}}
\newlabel{getstruct}{{8}{18}}
\@writefile{lof}{\contentsline {figure}{\numberline {9}{\ignorespaces  {\bf  Points sorted in a Nutshell} (a) Select a region on FES. (b) Get all points inside the region selected. (c) Compute the statistical mean, median or mode with dataset X and Y. (d) Create a point PM with cordenate x and y with the resul obtained in (c). (e) Compute the euclidian distance of all points from the PM. (f) Sort all points in function of the smallest euclidian distance from PM. (g) Export this points to user. }}{19}}
\newlabel{esquema1}{{9}{19}}
\@writefile{lof}{\contentsline {figure}{\numberline {10}{\ignorespaces  {\bf  Point created from Mean (PM) of dataset x and y of region selected.} All points will be sort in function of the euclidian distance of PM. The user can select mode or median instead mean. }}{20}}
\newlabel{mean1}{{10}{20}}
\bibstyle{bmc-mathphys}
\bibdata{bmc_article}
\bibcite{GROMACS}{1}
\bibcite{Scott}{2}
\bibcite{FreedmanDiaconis}{3}
\bibcite{Shimazaki}{4}
\bibcite{Gruebele2002161}{5}
\bibcite{gromacs_manual}{6}
\bibcite{Dinner2000331}{7}
\bibcite{fes1}{8}
\bibcite{fes2}{9}
\bibcite{fes3}{10}
