bin_x_DA,bin_y_DA,time_DA,bin_x_DE,bin_y_DE,time_DE
80.6156072495719,45.170766302442644,34.21370196342468,80.68529482200057,45.53681852378094,132.9491410255432
80.43636415473156,45.43224792572801,39.600120067596436,80.24249612518315,45.31962709706755,92.93438792228699
80.4541076222772,45.8931932380774,37.75630211830139,80.53864350175536,45.313115898821366,77.61943817138672
80.25482225773544,45.52481015784929,34.94529986381531,80.12075721156646,45.27453482176253,93.09096431732178
80.34843389951902,45.98343262615731,34.06794714927673,80.89443975528866,45.8020426893907,112.62625527381897
80.66812304786686,45.452082456089556,36.03416395187378,80.12296296385773,45.306710170514634,92.16426301002502
80.05275529622782,45.464841682463884,32.31954097747803,80.92877343731755,45.73308186729986,102.2255322933197
80.23302894001858,45.68736362004552,33.69457006454468,80.11392593714857,45.70230878408893,102.66444611549377
80.78989507689926,45.458738092963586,35.202983140945435,80.56523728906268,45.74490352123223,81.53062200546265
55.40172426149752,51.58775995027668,34.42934989929199,63.216559280984654,45.87991881623083,70.46804189682007
80.48115303377494,45.829908699821544,34.31593704223633,80.33487266250836,45.86005441691577,136.25116205215454
80.49207347967535,45.851132528498965,34.76184701919556,80.37080327080969,45.97354775348566,86.57116317749023
80.33478241586272,45.13396143271393,33.05154085159302,80.02914747181393,45.89152253902989,122.18200302124023
80.28365343374435,45.88455725332096,34.98619318008423,80.53074109219335,45.47403031169176,68.40950894355774
80.94242448920431,45.54485217087836,33.44011902809143,80.38201959166128,45.507565893682795,134.538831949234
80.91816956204048,45.362526459465016,34.90003204345703,80.73685588661272,45.97453672794535,74.11437702178955
80.70226370421733,45.045411573781166,36.05674719810486,80.50677340941934,45.70426792022374,141.6291148662567
80.01251513070497,45.30602054420251,33.896629095077515,80.94226784935074,45.02966337048559,110.91660690307617
80.07415080144801,45.21101926201027,36.869609117507935,80.85772262276652,45.488528891290855,97.37122702598572
80.30923810052309,45.10046417930698,34.29462289810181,80.19350862861711,45.49467294874631,70.7173981666565
80.96385955488086,45.01469944419864,34.0456440448761,80.64197462987698,45.19740257507232,98.38341975212097
80.592882050365,45.7756788495974,34.41008710861206,80.85261557139171,45.68039418308956,93.07394909858704
80.29192945913178,45.16462126072497,36.041922092437744,80.30816559139521,45.89291445747506,89.21917986869812
80.28450516323414,45.673900882227144,37.28909516334534,80.07483739150695,45.16882544289581,128.93745708465576
80.77924980685339,45.1097179249507,35.62696313858032,80.57382486316766,45.5548574037976,113.95607089996338
80.05543728709517,45.32767966706842,35.187941789627075,80.33596869997967,45.42076213497154,138.44788718223572
80.17758390818472,45.089995641043515,34.150654792785645,80.8362462750926,45.76495217072011,132.69114899635315
80.93446848654867,45.81019397241607,33.76706600189209,80.0235385477718,45.37191421950814,94.7517020702362
80.71256496935985,45.55416678308961,34.4889862537384,80.22227092883128,45.149690654088715,93.4471480846405
80.59992161019909,45.08284719152289,34.97873592376709,80.53802072078969,45.640554321360526,144.2128918170929
80.10718508915147,45.406780876775656,32.93442106246948,80.04073572049197,45.91708303729877,126.14695119857788
80.79870114218284,45.9307191246171,36.33639097213745,80.10524161703984,45.352539533868594,95.97122812271118
55.108614059370666,51.13247341092119,32.460424184799194,80.9713384584349,45.71429510831803,93.41981482505798
55.51363407957342,51.33765537030399,34.611085176467896,80.75915378002958,45.04091887622326,91.60938787460327
80.92040630197585,45.34871123343328,36.16632103919983,80.61241863740628,45.28039353635887,78.78261995315552
80.39034923071131,45.6421013254685,32.51830720901489,80.6150617799297,45.384663805701734,123.24346590042114
55.26079333127291,51.936371150715786,34.0336799621582,80.9607859075582,45.26182583582488,132.8640718460083
80.51930588548498,45.892216663692125,34.930500984191895,80.87085866841079,45.663413615740524,131.32209992408752
80.13579178182408,45.088208105318245,36.92015504837036,80.43212496929351,45.66322247996345,131.75021600723267
55.66524863351765,51.89751284348108,36.03100514411926,80.07132080738728,45.094809088187446,132.99270510673523
80.55165600283453,45.56744164272004,32.96545195579529,80.21082718417045,45.86215547635072,106.18905091285706
80.78495982777031,45.52403402025243,36.160452127456665,80.47321003116411,45.72740073581531,127.99125504493713
80.39755899728539,45.808835234336584,35.899089097976685,80.74925873199112,45.15908300597255,111.04112792015076
55.78367301594699,51.879944358478724,34.31755018234253,80.09207920025034,45.81671278536618,119.26831412315369
80.22540984984198,45.7375964820385,34.47146201133728,80.87263829775088,45.9675445020286,112.89007091522217
80.71707027083107,45.01748251914978,35.654704093933105,80.33446615685068,45.07015952744439,122.97540402412415
55.155533141125716,51.10350250230522,35.63635516166687,80.2426474489775,45.27906871450574,116.31839609146118
80.36418411221166,45.401156747138884,36.4747257232666,80.2674857811902,45.57302874150747,90.9310929775238
63.46804241626978,45.384478089497634,34.18687915802002,80.67532072058918,45.24099150675141,113.66707181930542
80.54996958425772,45.835973184531895,37.81966519355774,80.33686105643346,45.044682000897524,98.35757803916931
80.43640680694489,45.7039325041776,35.18098211288452,80.18201870441908,45.39675333674887,115.52449202537537
80.74172351997186,45.69617097577088,35.88669490814209,80.31141782254423,45.67194356861842,104.25525617599487
63.02730171627968,45.84625196859429,38.16868782043457,80.87941932212851,45.33400394350133,93.72076201438904
55.060178263355965,51.33440273518363,37.10550093650818,80.15484797095615,45.45225298841706,95.89861989021301
80.63973608645529,45.89913353960583,35.90263605117798,80.66951609211537,45.39138821036107,75.60059809684753
80.90147164484756,45.850270825072585,33.54787087440491,80.45688258300316,45.170319290442876,96.1737687587738
63.13687828079014,45.14138721232871,34.10685396194458,80.42221141901035,45.12161514188995,125.09116387367249
80.18156694399659,45.2515851786502,32.834070920944214,80.52693768289163,45.24882940432718,153.30403995513916
80.10320406854225,45.68135447825466,34.092790842056274,80.97333112894773,45.82050706943386,96.19597005844116
80.56576621167869,45.46566413342953,37.73457479476929,80.56508353692669,45.12107343559347,108.03839421272278
80.83681156282546,45.564816531947145,33.67601728439331,63.27870461057972,45.808268223151,180.6653277873993
80.235991742029,45.13669629779565,37.58355212211609,80.85190126946583,45.8865989540389,76.76840877532959
80.71961697266806,45.36161331622088,35.16844391822815,80.83500437356423,45.983508194747685,132.42001605033875
80.44556006662037,45.26225313688224,38.66331386566162,55.256878560019004,51.78056962153977,80.73023915290833
55.41611622717028,51.102810219718776,32.08781886100769,80.60151518038481,45.016028222984744,114.38600492477417
55.77800185204751,51.39344098987817,33.50928282737732,80.66562878778922,45.33487920351229,118.64883422851562
55.736635101893626,51.000560147087526,36.15634202957153,80.14508757681102,45.070296724646596,134.0058250427246
80.70761847752556,45.92414743354129,35.687339067459106,80.1875507989136,45.31031333989773,134.06556916236877
80.48382592571966,45.56152382563164,34.336897134780884,80.9288284447174,45.44915800919978,71.12400388717651
55.42581449530758,51.69016387248848,37.356547117233276,80.93300383001514,45.69725745789128,72.76588010787964
80.97419254209149,45.34291722887792,35.61427307128906,80.75973193977961,45.39052970718984,100.11236906051636
55.95353379931453,51.8681017171798,36.4162700176239,80.64424219440264,45.15699875410405,152.33997011184692
55.06979085049534,51.41040424398466,33.495397090911865,80.94526654365961,45.10880620124152,111.46060681343079
80.53064011909169,45.59160928613255,34.147268772125244,80.06080360016341,45.28875272154727,136.2947657108307
80.91350763340279,45.73086697617168,35.014643907547,80.11339201113799,45.32932669567123,126.01842498779297
55.77035048495031,51.48811900393912,35.65480279922485,80.84308021887176,45.205471950346464,89.90224289894104
80.34566845859854,45.08960494585335,36.067564249038696,80.57447376017018,45.596151768633604,89.51023507118225
55.75612540220391,51.64009057290423,35.62085509300232,80.28841141076555,45.06588563696357,115.67302703857422
80.70222240429212,45.18676645628875,36.28661918640137,80.44170895265404,45.66130956254625,148.30900597572327
80.56260828242944,45.72080866295323,33.86769104003906,80.88152122216553,45.38807343027321,106.36576318740845
63.08817802504268,45.74683281304965,34.4493567943573,80.65764472406954,45.380572704856206,112.88235211372375
80.62552643341883,45.94938232885602,35.188045024871826,80.25891284302173,45.82729697163143,122.53144073486328
80.76017428809155,45.297537172965576,33.73369121551514,80.19155393449262,45.23075790225914,112.73011088371277
80.56045069888933,45.346071743948414,36.73616099357605,80.99602275067582,45.89220109973667,96.40180826187134
80.7976138804379,45.35381122383046,34.66592001914978,80.84439225402923,45.037197521680525,142.34478783607483
55.45863488619398,51.416924285492314,34.60616993904114,80.0044584954909,45.25527912798901,140.28652215003967
80.98498523505032,45.528504333016144,33.714154958724976,80.27986487468604,45.90310220863802,163.88259768486023
80.4371348848972,45.76885343523713,33.108375787734985,80.59661755914277,45.09192716927487,121.01241087913513
80.65895215729779,45.947772293113985,35.02071690559387,80.37940965599671,45.59086531680879,141.20354104042053
80.6076502313399,45.70588520288402,33.274739265441895,80.357370009335,45.006527130634765,98.9308340549469
80.75434149691364,45.96765424700243,34.03494691848755,80.76882743435823,45.66624522332381,130.46743202209473
80.65469838646982,45.95931339705726,34.27586603164673,80.0310815756643,45.48545641174036,99.83813714981079
80.07454219685269,45.622894538025776,32.83810901641846,80.24793562507404,45.64326746457482,151.26077389717102
80.45662491926782,45.604726462450344,35.59820914268494,80.28754807189983,45.82839091468753,79.977303981781
80.97562577941517,45.03381631150842,34.89023208618164,80.66658263530587,45.08403484539366,132.07610702514648
80.52607193491508,45.127804715570846,34.47484493255615,55.34481144255898,51.719935905175305,88.5330798625946
80.53509490655279,45.261682429752454,33.33104467391968,80.0135586601433,45.36582985818279,71.4819118976593
80.67350824116374,45.0357504667013,35.663894176483154,80.46806187394088,45.3125278978772,147.26688838005066
80.68054570762206,45.44544883079675,34.56203079223633,80.05307667523488,45.21455954429405,106.18958878517151
55.805121226259644,51.18831124026951,32.56564402580261,80.18405800112708,45.08212081680199,129.5028657913208
80.33745041343741,45.29039688914668,34.78052282333374,80.90406723370967,45.9639366885018,122.33586096763611
80.60669719886937,45.568882275838405,36.08130383491516,80.18399286804458,45.49619612004142,139.49478697776794
55.14792437864162,51.86663566619791,35.62651777267456,80.85543283223126,45.67494522181397,131.8395812511444
80.08655511436518,45.3024062106615,35.19401407241821,80.41083697818164,45.52615378734697,150.38636207580566
80.2826019349045,45.65612375336582,33.43425273895264,80.70756850743385,45.94582432498112,104.0167510509491
80.13369390933076,45.24976584204228,33.61565089225769,80.65822058830446,45.792575688136935,146.88748288154602
80.44363730932037,45.88330624096716,36.57312774658203,63.74591374706921,45.90031676223964,121.84359383583069
63.34728816671782,45.65913027585998,38.00806498527527,80.56502898499213,45.33247972986618,90.99903798103333
80.93781464355538,45.5514762699604,35.134357929229736,80.79831030385475,45.099254095780736,77.43266296386719
80.76034931775257,45.17066476997388,35.46313500404358,80.4781414459232,45.32081609094831,93.64486122131348
80.00245079090746,45.48653973805767,34.734564781188965,80.1514520704751,45.394780944732986,123.32692193984985
55.0534008369425,51.553754440298235,32.67163896560669,80.13979808260524,45.26321957007542,96.27069187164307
80.99800421853661,45.404588248333766,38.43699908256531,80.62912877151695,45.37605403730697,107.24676775932312
80.47036728053627,45.21896006687666,35.265434980392456,80.38571972456663,45.99227188492364,106.02651715278625
80.98965533675641,45.98015377419142,35.53659200668335,55.65996226894691,51.418570809712435,95.70275282859802
55.44807473284004,51.765376437762825,34.46021294593811,80.98010304257792,45.51031599955991,91.71138405799866
80.19451382328816,45.3553567789495,35.22737193107605,80.63039855003194,45.876786256260345,71.29049706459045
80.0655383496728,45.6867697445914,36.42741513252258,80.64055409627736,45.59629479526467,144.51168203353882
80.40857884285651,45.672910359438674,35.281262159347534,80.92219455723199,45.999114599450195,122.3394889831543
80.16862678394432,45.194431942833035,36.13182616233826,80.16647327336364,45.247144392800635,98.88735795021057
80.4792792457381,45.93401448149234,34.038551807403564,80.8691951772197,45.034256780084036,93.1299798488617
80.29480030613036,45.94970454740951,35.9554181098938,80.63924734844687,45.345922504772886,75.63341188430786
80.04508492302875,45.15371555886986,36.76928186416626,80.72129899975414,45.00392720083465,79.73707699775696
80.75977971960674,45.20467080606272,34.572429895401,80.77196197123999,45.45795750414902,146.96988797187805
63.43088256072133,45.92930662592562,35.568742990493774,80.04882685783201,45.25809964827215,115.87246203422546
80.99742895364761,45.46268539159473,33.26404905319214,80.00529357219784,45.57641808232904,125.4207911491394
80.0913234795139,45.58205756304028,35.490052938461304,80.61900405975547,45.00017436933979,161.70293307304382
80.7741788098981,45.86046710648111,38.48493814468384,80.5382407683478,45.071086602508046,112.81862926483154
80.3007583145245,45.47783489316657,33.4722318649292,80.70557390997914,45.564218718696395,77.85594582557678
80.17222809952841,45.64745578880161,37.157914876937866,80.76306570147449,45.520111063067645,94.60318207740784
80.82968783310025,45.008402486259,35.21637415885925,80.32443452826948,45.0862751703724,101.6719241142273
63.05164461512163,45.743509271217135,32.263995885849,80.5384848329573,45.538533970353114,152.583429813385
80.24064044005854,45.908033079016604,37.302505016326904,80.79902097710936,45.80294712962075,97.58028602600098
80.7898668464486,45.71864267129217,34.415234088897705,80.50987363897065,45.53048919355649,96.08948707580566
80.06519746562276,45.116394655964314,36.251099824905396,80.58894150630948,45.431961602135345,73.62656307220459
80.45098025145285,45.12264152782154,36.10809087753296,80.75030918379917,45.77050400028031,133.23438811302185
80.79594722788738,45.303200540926355,35.550734996795654,80.29425761656779,45.202000174875764,76.44070100784302
80.12850778640632,45.779385788060836,34.97130489349365,80.71223644683391,45.37098427410416,116.30530095100403
55.34598336984959,51.70349353577694,32.9524347782135,80.7566270327323,45.210351878039944,97.4862687587738
80.03294351201566,45.37161601689513,35.99451804161072,80.40201405265782,45.473757324815665,74.54673361778259
80.9506383260391,45.900460719935836,36.785842180252075,80.3566806609029,45.04826317683029,98.94412016868591
80.36046343409998,45.3925381259769,33.82593393325806,80.2787826088911,45.51182144637977,76.88995313644409
80.62364962733591,45.51378784873668,36.66050910949707,80.24962074368852,45.41540200984497,141.3141040802002
80.44141375847335,45.182207886476135,33.55752921104431,80.3859065547515,45.375998382782996,108.43847513198853
80.09332718895803,45.96889330067688,35.703776836395264,80.82914354646073,45.26943738705859,99.95720791816711
55.754033762824974,51.267186725384136,33.27808880805969,55.175553680328164,51.94500132281297,120.10399413108826
80.33252067957778,45.78905696278957,34.39753079414368,80.53594422430217,45.41724503822087,139.8408420085907
80.0540639066835,45.05521741210737,36.9973361492157,55.8292473437283,51.55694982972699,104.267343044281
63.465815132330135,45.478960611436605,33.80545711517334,80.4423846114853,45.55450737971705,142.2740490436554
80.80509681146305,45.68080848085219,33.5873908996582,80.88881032393817,45.06884564121776,119.78577470779419
80.46874570220007,45.19299762211995,34.8255090713501,80.40456191350654,45.2960566163149,146.55669927597046
80.04129401100886,45.63027846318346,33.80422306060791,80.19549553349191,45.10462800401882,111.06000995635986
80.60749940231153,45.84779573987976,37.2860209941864,80.1725821252615,45.44293472433992,94.5466160774231
80.68482189625502,45.82497657585918,32.43682312965393,80.1806752424946,45.49138796611976,114.0673611164093
80.63434532278552,45.21590280873147,37.62013792991638,80.13759510654108,45.265151900770206,124.77971816062927
80.51235311186679,45.74700138338562,33.68061590194702,63.647677837420645,45.23145999330353,133.23024678230286
80.18065592503876,45.07903323683763,34.970439195632935,80.81848576930719,45.765022175511376,135.20148992538452
80.25637101017287,45.093488914057616,32.84340190887451,55.35862167605126,51.74336380066393,97.47076106071472
80.52379963525937,45.1346659574192,38.12458920478821,80.60635613604262,45.91901346221027,119.14364910125732
80.15749517379231,45.1574163778987,34.03202414512634,80.90308987337357,45.87138377121403,138.75429892539978
80.41475368968213,45.485515704682484,33.02971601486206,80.39746182272472,45.28379549491143,75.17085194587708
80.22807488482545,45.06673180684447,35.73368191719055,80.55951676766955,45.12659709139558,73.41688513755798
63.94535539485514,45.38194314390557,37.47515869140625,80.90138442518969,45.40593773398797,135.0282518863678
80.98361014563716,45.584638316407336,34.09254693984985,80.07257766255316,45.01438863457986,102.25255584716797
80.79962772503495,45.64413006603718,35.236725091934204,80.57970584963141,45.61188000869117,107.02588295936584
80.04268075052119,45.2539756614683,37.48065257072449,80.0658923905666,45.80442226116412,151.67910814285278
63.26558548511525,45.0744564449451,37.458614110946655,80.64441868164215,45.39618604809965,127.32561016082764
63.73393784730456,45.52897621621014,35.635610818862915,80.35814897263123,45.98552715488728,122.70571899414062
80.03275101446388,45.11992608509968,37.11214518547058,80.52619361785514,45.91558803431252,116.24964904785156
80.78641787350034,45.37620711274599,34.71077108383179,80.76258986549544,45.619651744879036,107.246089220047
80.31153770676156,45.00944125205024,34.901816844940186,80.73707303518069,45.91265095737862,138.00995707511902
80.73250416333372,45.075132344188205,35.171502113342285,80.433487902661,45.135009877323455,127.27344632148743
80.92854326969632,45.280868818744466,34.4447181224823,80.23499913721685,45.798411141393274,123.9710202217102
80.15071766078472,45.54578611958482,36.250157833099365,80.6247229150847,45.767291350493394,130.60252285003662
55.927922981930806,51.78515378867951,34.92609906196594,80.16413042829487,45.273531478176835,104.32604908943176
55.31180775195594,51.49845043275718,35.52160310745239,80.15395876802268,45.99364465955517,91.10453915596008
80.88222119970601,45.89687819091341,34.00528573989868,80.10827812252182,45.87859651308321,92.11244797706604
80.13543458602476,45.615575080674716,33.964993953704834,80.73886055956535,45.700441789471654,79.03245306015015
80.90242461991079,45.62867169014953,35.35307216644287,80.9254599942393,45.85842697071064,96.08787703514099
80.61564934028047,45.84641036446237,34.081382751464844,80.24100619314584,45.99593967934288,89.16449999809265
80.94864800815412,45.90090559881355,35.73183584213257,80.4097833571376,45.45829846206561,93.30819082260132
80.95521466061223,45.54927395051345,35.521300077438354,80.02374109953593,45.098033469950394,103.09472799301147
80.36284454361908,45.4731419980526,33.5252799987793,80.71679900341036,45.40514327976706,111.4415910243988
55.96764489933844,51.995199702137825,35.49765706062317,80.7995723842248,45.87760730950697,121.51393008232117
80.52081949685748,45.48619578047396,35.35495400428772,80.7167192416876,45.042358396916256,108.28751301765442
80.3549102977272,45.05251718720956,34.89642524719238,80.34981768762265,45.96832461686938,81.11554718017578
80.98613774719092,45.363792295379426,33.95105814933777,80.81208309379434,45.98061311931855,94.11651492118835
80.41583121891563,45.078259457790864,35.90572476387024,63.470325996752365,45.61050579358459,101.484041929245
80.18881270375232,45.14638411398778,33.24349117279053,80.74988277929094,45.70185170309361,113.16796016693115
80.79204949234008,45.16065950491793,37.49675512313843,80.49350102409869,45.37554554293911,111.4799427986145
80.33358054901419,45.14460674180418,35.01631999015808,80.23526614380415,45.81795464316684,110.55125522613525
63.90551883748685,45.02887708519097,36.62741827964783,80.13557601939533,45.396205320624006,135.76551866531372
55.81724519069189,51.44612223429772,32.99054288864136,80.59985405725547,45.51242684231988,132.15773797035217
80.504793216204,45.384534855230186,31.69859218597412,80.3354996258742,45.764510337773345,143.09704089164734
80.01322971347804,45.20313621661626,36.82899188995361,80.3656759353118,45.67272468073867,144.02495312690735
80.95727391004289,45.22009613476598,35.4301061630249,80.17763594061927,45.31032981288803,134.31214690208435
80.44246706366539,45.64161538495455,36.51966166496277,80.66018265577264,45.498977460032506,119.8099467754364
80.6301539519668,45.964019397005586,35.06328797340393,80.61520270605376,45.15555795848519,121.62165307998657
80.73148377859138,45.36004702626974,36.297435998916626,80.39494943745711,45.854416782731164,151.58647298812866
80.06888192854512,45.922287269045455,35.318527936935425,80.02061323321078,45.453385458185835,96.23138880729675
80.59848598352437,45.56366464695725,33.94296193122864,80.5944486052091,45.61012803345977,139.636883020401
80.62647720385235,45.113802050856975,36.07834601402283,80.0845298046163,45.34992903933977,126.23093914985657
80.61721497633812,45.88605858827805,33.948201417922974,80.11754225083422,45.99243090270363,152.46129608154297
80.42932373043618,45.986461882622734,35.339518785476685,80.12658374528138,45.56567286902356,145.64562821388245
80.08706663769476,45.297390062613204,36.70336198806763,80.65636455564203,45.530520412048645,92.97639393806458
55.841754106562576,51.152356727846154,33.50041198730469,80.23941763331487,45.44462807839102,115.35213088989258
55.849587884667244,51.00958441635021,35.64257192611694,80.67109834253432,45.47764674108805,66.9625129699707
80.13600917216968,45.37534549427846,33.46260190010071,80.72078682303783,45.3387740005158,118.60344815254211
55.5965264847091,51.49437911812129,36.33015990257263,80.68253057212962,45.7888735201152,110.53278398513794
80.96727579487288,45.48061577976182,37.56008815765381,80.60327714383544,45.16531055695816,125.44170689582825
80.13306427895327,45.38485832145784,34.708256006240845,80.46728843264162,45.681759810307426,138.5262472629547
80.13060045031193,45.93606841965857,35.70386028289795,80.87009312633796,45.20928878605059,145.89192700386047
80.72777579830222,45.94817941726001,35.556066036224365,80.44096417132573,45.78690091888518,136.70931720733643
55.59826914886139,51.6684279271758,36.15301990509033,80.0830499729829,45.48435898332468,113.80085873603821
80.4539310292082,45.18218305565665,33.31166410446167,80.80926823147365,45.8358468927309,143.75265407562256
80.46538101582337,45.14422269473994,34.54443168640137,80.57225272362297,45.93005489244649,115.64250707626343
80.10001872886801,45.18688633788315,35.77465891838074,80.67227997523679,45.01130561876181,110.30031061172485
55.15352585839537,51.2481992385176,34.75881028175354,80.51743138323752,45.550302920069555,98.83915996551514
80.39739363686977,45.880959191909824,33.733951807022095,80.35242077753986,45.49766643340996,157.30588698387146
55.14437074533157,51.07060483347618,33.76395583152771,80.18188339081604,45.46970757774602,108.272873878479
55.531951799684066,51.143015286105765,37.88599491119385,55.09185566620374,51.37965735524341,91.47657179832458
80.16433810838726,45.76536962273508,35.183587074279785,80.7953465984341,45.90777511198769,107.47392916679382
80.42475897050372,45.429711294030994,35.17570495605469,80.49619082345157,45.35621919231403,95.74215507507324
80.51663341474841,45.65748971592211,33.937135219573975,80.77118739735477,45.10470914572909,110.87021017074585
80.87089526340355,45.06112510614662,34.879191875457764,80.24177263170617,45.28956865119534,78.7722020149231
80.6779873490018,45.61437545242666,35.27591300010681,80.14754777243269,45.379454780789615,95.58547496795654
55.61875353667779,51.18104548797419,32.28435301780701,80.01154380024047,45.3772406198367,74.04122376441956
80.28321502512699,45.40940651238566,36.656676054000854,80.89330168246329,45.65449532146789,116.07961702346802
80.61462473129268,45.64081352414087,33.10683512687683,80.09956690915345,45.32568981557199,114.810791015625
55.37889669194351,51.08330143665262,32.30912804603577,80.63894118775329,45.94477722496663,80.09706997871399
80.21577537579014,45.404996103527765,33.63527297973633,80.07801306560953,45.288375491353804,129.23465776443481
80.40308857423952,45.41656887812019,34.63746404647827,80.29687621334011,45.39714834035135,101.21464705467224
55.3962220856572,51.34226972806937,32.476908922195435,80.1301350155045,45.782488776290734,128.63201785087585
55.64905825480173,51.23153718469871,31.504979133605957,80.03010912286987,45.100299760164376,118.71650290489197
80.463728292013,45.279073200174025,33.2358238697052,80.12107086308941,45.36482346140332,68.6404960155487
80.75663149053094,45.84457283120946,35.55309009552002,80.32224243691161,45.49468229989344,109.84402585029602
80.55310118037187,45.750382656333386,33.17245006561279,80.07728732094677,45.23012454063962,101.41475796699524
80.73675653595592,45.82450689720622,36.25065493583679,80.81255049618255,45.70323945809872,113.69701719284058
80.67873099422854,45.495963324548256,35.885693311691284,80.57013318532654,45.25026478431181,91.30507326126099
55.71676676137122,51.90358522762017,34.10361695289612,80.52417734469628,45.2816824217486,89.10495018959045
80.77526367804217,45.892773264273956,32.54315519332886,80.34487909772292,45.23818729443559,103.59912705421448
80.61462938786758,45.41664040041405,33.00520396232605,80.16921180792457,45.10055103466652,118.11065292358398
80.41499034741128,45.14557459587536,33.138975858688354,80.44921780110951,45.34803791041571,88.93859100341797
80.7986829248664,45.43564529961213,32.79858613014221,80.19452285447511,45.30824429117149,108.35146999359131
55.021104007959366,51.18891986419908,31.876158237457275,80.17040398796098,45.80006344393735,77.56674194335938
80.5924062590243,45.33771402564935,32.43558883666992,80.90937615742786,45.85364840112561,120.5982780456543
80.61172092260176,45.75125008491614,35.168322801589966,63.14847787225136,45.975774264364134,83.68155026435852
80.93192398303631,45.500497252355444,33.75975799560547,80.03450304108048,45.896471698381106,113.58322501182556
80.57713081790575,45.84538795786034,33.75238108634949,80.76811602968382,45.47589946893231,117.33978605270386
80.332910665913,45.11633668012291,33.27521991729736,80.18482179407806,45.82784508753036,135.35068106651306
