bin_x_DA,bin_y_DA,time_DA,bin_x_DE,bin_y_DE,time_DE
80.55284677574241,45.84670639900173,85.86523389816284,80.77117013170465,45.63678958983911,226.52601671218872
80.09834980388268,45.83124058545218,63.46926236152649,80.51814274578419,45.91937716653871,131.3070845603943
80.90611537623022,45.48613834368689,66.03195071220398,80.49465763025387,45.27349904395584,168.98511791229248
80.98915126962106,45.71615059585133,65.49956846237183,80.47699720709761,45.53060796262446,195.35550236701965
80.93574470163776,45.49890323220552,64.97572469711304,80.74447826406043,45.560006166460084,133.31323504447937
80.48019847241426,45.04324189046747,65.01518678665161,80.38654322569124,45.06047967219581,152.9111292362213
80.69852128381854,45.227742655944894,63.538469552993774,80.110161296505,45.86505830362364,105.2214457988739
80.88286362046392,45.66693003732871,64.23767948150635,80.56513619213513,45.0900264326458,132.3541555404663
80.14288475920739,45.327815283691734,64.14120197296143,80.36420788610855,45.067580184193275,194.17391300201416
80.56937951315876,45.05057825444351,66.9549171924591,80.18007184071081,45.18952221029758,96.45275259017944
80.2928354303076,45.308779733748224,68.0132327079773,80.47803790260076,45.7909304188471,167.5528964996338
80.20752752299518,45.89985641198882,67.73739814758301,80.5346404536362,45.54711014977255,167.90924644470215
80.76254716336621,45.18207316898793,67.14715814590454,80.54099031007394,45.94672195614197,145.3121247291565
80.2411678726503,45.56549075970611,69.33062410354614,80.0642425958577,45.7710554930153,177.45536494255066
80.41184464891558,45.52162975072861,67.62690091133118,80.58570869126186,45.53915794768233,193.9943482875824
80.3213470822343,45.88207264016819,63.92287230491638,80.58114484882447,45.579630238766356,163.98451375961304
80.51843386675273,45.02364592922959,61.91032075881958,80.62173688142042,45.065629852222514,163.6416733264923
80.33349978323895,45.19619642864268,62.15314316749573,80.01222306024516,45.03298091192664,150.5915310382843
80.76776927837022,45.94500789149288,61.645803689956665,80.96691099690321,45.2214722629156,161.03589487075806
80.15831358190917,45.49874134497804,61.97930407524109,80.87879211525393,45.44840888103079,152.7298641204834
80.65929122143689,45.70466499739405,63.113051891326904,80.57190595845157,45.769620429776694,186.14229321479797
80.25373714505372,45.22377975921427,65.60869097709656,80.30718991256043,45.52415466517084,207.66922163963318
80.1640849226817,45.386649496063455,68.94383001327515,80.43375843327857,45.69001329204525,154.28855776786804
80.72868604148175,45.65202119175524,65.07454037666321,80.30107496029768,45.845282413602206,144.1423192024231
80.91236608022018,45.719463471978315,64.08802509307861,80.36364950010432,45.96623998132122,168.24586057662964
80.24240997613742,45.84632988083467,65.1452956199646,80.35923109061508,45.495969883729856,179.5377640724182
80.73734420809342,45.28977777451746,65.70703434944153,80.01078149181183,45.832523208910175,175.91029739379883
80.52044227453098,45.59586573272509,65.13639616966248,80.96510088087382,45.2219252008839,144.87224411964417
80.3932421962968,45.44629184114706,63.434654235839844,80.65922759232552,45.08167080505228,142.37221384048462
80.33792241288347,45.39635006699268,65.5766236782074,80.57017919000225,45.51992606448704,169.50100183486938
80.43544391332262,45.19271275056599,65.93106412887573,80.01437738796352,45.71930781586241,217.52988958358765
80.8431853215418,45.43234040782613,64.73416662216187,80.79064833033055,45.98074247152101,153.9596791267395
80.3916026272666,45.49186506104684,63.91063833236694,80.98125566960817,45.47136165043736,99.65966820716858
80.49650476811917,45.64013186949228,64.52993130683899,80.36441954533035,45.711440915393496,168.18545007705688
80.18730586316065,45.57532351222517,65.82348942756653,80.85336802879152,45.92793961365396,133.1332883834839
80.69569242375246,45.99500635801451,64.69207644462585,80.10565012349508,45.92862368375279,193.5443298816681
80.42220429542681,45.08273063089723,66.18092441558838,80.66932159203145,45.330939961026104,164.02223014831543
80.32845606932119,45.9692453178684,67.7936007976532,80.73058084006033,45.91000602508268,122.07053446769714
80.03064784154526,45.25317103249813,63.68021249771118,80.4513413109666,45.40455576740908,118.92670583724976
80.67944815205283,45.66852981501643,63.390416622161865,80.800667560943,45.5850578964309,107.55370235443115
80.82472905237228,45.526970982551575,63.64039897918701,80.57476392619856,45.99992387321515,157.474116563797
80.51580288129026,45.24580599499711,62.812177658081055,80.41209618007326,45.659074461235434,187.52022242546082
80.68616962564124,45.82245911928226,63.939576387405396,80.9462435460456,45.70343126962587,102.12719774246216
80.73180035388623,45.43486691371618,64.44293117523193,80.21226543977093,45.94945428515314,164.59085631370544
80.98769543723893,45.18319531137263,65.39570474624634,80.19780636020573,45.526552317311655,211.5073845386505
80.32459898440152,45.28671956057656,63.69998002052307,80.87257109456232,45.22611604909832,153.0415964126587
55.851050423741526,51.10491439202747,67.29272651672363,80.09258866193363,45.149143847011146,143.3601188659668
80.66088058187847,45.23406972715679,66.56835675239563,80.59538779827488,45.79693020318598,120.1690890789032
80.53938237418515,45.39505229768247,67.839608669281,80.99356055534298,45.01829039635271,145.7688024044037
80.743430153796,45.2516544272105,57.47021698951721,80.33340027649967,45.44306352320399,106.87072515487671
80.07396155745892,45.67892487292124,59.303205251693726,80.12799834388824,45.36225078122192,190.71862840652466
80.23343611845121,45.402585812378675,58.39819693565369,80.28305885568051,45.40512974115188,132.54841804504395
80.31413275711611,45.97642671479207,57.341413497924805,80.11493723415725,45.844781455710745,176.98206162452698
80.5469796093737,45.8370539364405,60.18577742576599,80.92148975407542,45.69070103394523,113.551340341568
80.93769460254066,45.261959697724706,57.86611318588257,80.46774845048998,45.381130356645826,182.904394865036
80.37192384800073,45.0143663585186,58.65107846260071,80.90544047812938,45.11745511411186,142.9751055240631
80.7699485452847,45.421692243117604,59.30054831504822,80.80398543748458,45.654262150754164,154.1328797340393
80.56410668083117,45.82649774132619,59.21862554550171,80.5672457549561,45.61339707951504,88.57572031021118
80.53270789047451,45.70513292836904,59.84472179412842,80.92941234868528,45.74254521694411,143.85057616233826
80.62685770882445,45.74421825310765,59.99416375160217,80.3999159179238,45.0476770855405,126.83149099349976
80.63620056813647,45.10601681952767,58.18550419807434,80.46152580653273,45.45419700669669,110.72368121147156
80.1740762300135,45.339619545377445,60.08124804496765,80.69327104028065,45.39888712532115,148.31231021881104
80.70846705747363,45.9800785041366,59.38855600357056,80.06034730455934,45.50600825392445,150.24030113220215
80.25011983025774,45.717162648614476,59.461753606796265,80.7373767697539,45.110049121340694,125.49422240257263
80.82300315679709,45.65659622772387,59.722758293151855,80.59413905939232,45.19542618024076,104.94948649406433
80.33904724010904,45.72709808989998,59.160431146621704,80.33392379977857,45.80174248016817,125.89990830421448
80.63129461153903,45.6079660314731,59.296252727508545,80.01724600737776,45.91098896302225,197.78083419799805
80.00840222389002,45.89692034542827,59.284116983413696,80.96727852505512,45.98272196433152,162.20254969596863
80.11681003670128,45.50056113908067,58.62682390213013,80.04687696329529,45.92251777705195,148.75901770591736
80.37072789157537,45.72445367440014,58.54581642150879,80.67912528630211,45.60307169053556,141.59071850776672
80.25787480984854,45.335931994601424,57.91374349594116,80.49290424586536,45.32213156876395,90.23690605163574
80.43347137055025,45.724704024220955,57.76479911804199,80.90656554763677,45.737552323423586,135.81351852416992
80.17132065657051,45.91061927500641,57.4979567527771,80.70598857494895,45.21783192001567,130.0113868713379
80.74218016432656,45.99986603055845,58.0061297416687,80.8508135166075,45.46601113844844,93.64885544776917
80.67505502410222,45.22816429927252,58.42494988441467,80.66304596830321,45.12180445346547,141.87317872047424
80.26907566457953,45.01922921464211,57.79612970352173,80.06579033292564,45.18170828034647,176.42496466636658
80.82822364974595,45.50571352340012,56.63374972343445,80.69374228712564,45.486560619004706,161.43337202072144
80.5090349859081,45.61040574265644,59.582313776016235,80.2544077686,45.522645621602976,142.12914085388184
80.58747097485457,45.02622705160866,57.323162317276,80.97331955151799,45.44940353889592,150.04678797721863
80.61806552635494,45.377934721298516,59.17833065986633,80.73794245698843,45.9917001319742,95.50337815284729
80.21490879008411,45.32320607453585,58.78774118423462,80.45429559136994,45.59235754116338,90.85184526443481
80.0558492184166,45.99884568947641,57.821861028671265,80.82276833589793,45.858442169895966,154.0756480693817
80.46672907899483,45.18210678193077,58.653294801712036,80.27583410349513,45.08393305538584,134.7036361694336
80.46377401070731,45.3847838630561,59.48857545852661,80.4348575349864,45.09904101165341,178.9331409931183
55.726988502088716,51.20695243854698,54.39954614639282,80.65656787042036,45.5136909299963,115.39128470420837
80.86756441091507,45.668021945027476,56.867613792419434,80.06865741446217,45.179380573364995,179.00379824638367
55.84728343257689,51.61118312472922,77.02057194709778,80.67078956198537,45.242679468289055,143.52054405212402
80.7646574149212,45.63360882001575,56.06761336326599,80.78492944648696,45.075810362632126,128.05788803100586
80.97456886939199,45.23418703773223,56.04419183731079,80.77947498163752,45.63022149930788,122.08654308319092
80.27662204360877,45.46690014505293,55.90478157997131,80.46239347221649,45.154046171123184,140.5281114578247
80.16040120363505,45.361758093695016,56.89837956428528,80.16153016546843,45.82682540401612,152.43851280212402
80.14975420041833,45.46992713955751,57.41301441192627,80.6248029447313,45.83247724188715,165.92617440223694
80.33434404058926,45.675822368843,65.351722240448,80.06201730158477,45.812906693112495,164.34925317764282
80.47069302150499,45.71035387939128,57.735732316970825,80.92454288972812,45.200494442154366,88.84967637062073
80.21716950346877,45.770166089588656,58.71808314323425,80.38379191937855,45.21560189154559,93.14699029922485
80.4022374079857,45.35790506330977,58.0651798248291,80.1260230006103,45.27908766667247,122.84648633003235
80.8199884101557,45.17596259636457,56.88353157043457,80.23000132363887,45.614752341171595,161.223042011261
80.14128939576767,45.03279904767305,56.7495801448822,80.44852611747001,45.616354722442,177.72073411941528
80.53649080650803,45.740186702480514,56.97958445549011,80.2773851015977,45.109945159703955,89.69192218780518
80.27917093931183,45.15153350356309,57.4455463886261,80.57210030318817,45.082792224341745,153.583163022995
80.62600238939854,45.11780451207869,57.003395795822144,80.58714317829686,45.864437820955516,141.02218914031982
80.33129797364745,45.05454921145065,57.06024122238159,80.20083708222046,45.53124568602783,87.31926918029785
80.34570890913551,45.93629806531635,59.24052596092224,80.64622986056827,45.49689355310534,133.34785509109497
80.18688663674811,45.34372426113487,59.33680510520935,80.60501784789977,45.15363810536684,137.078786611557
80.51175313286672,45.97893807005448,60.08120036125183,80.30526017535868,45.09338272960122,107.616046667099
80.3507804150995,45.90721332910471,57.359081983566284,80.17866792154689,45.51613378851005,166.04423594474792
80.55709088953768,45.92000956647098,60.473217725753784,80.23430607002996,45.654696975252705,124.88262557983398
80.9013119053916,45.73364224860006,59.32986879348755,80.03360469101676,45.49015090871194,104.2596926689148
80.93197179877552,45.93651542285966,57.202672481536865,80.40425693447946,45.97908328834393,169.01128935813904
80.52960429918426,45.704565989352886,60.37482213973999,80.04741002080897,45.692186060651466,195.53175520896912
80.99234311865848,45.04585335785055,59.0974006652832,80.13963446455284,45.03531191782548,140.58802437782288
80.48547550834269,45.61387705949551,60.42714715003967,80.11143098790137,45.97720594028209,123.10751962661743
80.85263587800978,45.42329924476235,59.36891460418701,80.89016064706612,45.60105565222534,138.81328630447388
80.10157879941039,45.60253598093118,58.728060483932495,80.40864220375005,45.39591829732831,93.35764956474304
80.69831820070704,45.476788268566224,60.367759227752686,80.14977305196282,45.524401502983494,134.4263198375702
80.61404615235847,45.41115532425215,56.52641201019287,80.92194688824469,45.2676712932398,120.9428539276123
80.50335992903138,45.84220587745449,57.40001153945923,80.70668491292315,45.41918000000254,175.0925257205963
80.4713932577356,45.45412809499339,56.575934171676636,80.90267546159873,45.92266533607926,137.59544205665588
80.2598318187313,45.88191080775573,57.80979657173157,80.37847670967261,45.56959867919534,137.26018071174622
80.31990784892287,45.55131797893728,60.29950714111328,80.08067327283982,45.465134710159816,174.81185793876648
80.230101024732,45.91660545459035,68.98748278617859,80.07436955944439,45.69481874046602,138.4120593070984
80.0751816145314,45.61494486861602,60.082780838012695,80.41190609287014,45.285805450028874,127.30726909637451
80.04228387574244,45.92497240288003,59.28634977340698,80.04172040571154,45.84631648701287,91.14593648910522
80.50176352654353,45.717149759072754,57.75237989425659,80.77840236968132,45.06565526569676,145.11682105064392
80.9888484239118,45.44118168529985,59.264320850372314,80.19833343216328,45.93655096184847,111.46826982498169
80.30255340647682,45.89554460168438,59.44091486930847,80.62628637651807,45.4641739748854,114.88031387329102
80.34815923157726,45.00282924037424,58.281294107437134,80.18369884558126,45.3450675959956,117.44508743286133
80.59127597276529,45.27117599385565,59.08951663970947,80.39295098060262,45.65411478179226,119.6229088306427
80.93471073704973,45.09886390463771,57.902514934539795,80.5310974191566,45.93377296421693,126.42100739479065
80.11797754844179,45.66112791855426,58.3622784614563,80.07405819920666,45.5544947653799,145.53062057495117
80.39131864857336,45.60350596041053,55.102703332901,80.28079231566352,45.08509637769447,135.61055898666382
80.48630221412964,45.61855570913099,54.938446044921875,80.13997752644713,45.07993292809823,164.94263315200806
80.73239841900386,45.398338415813896,83.44740772247314,80.79429290427515,45.90659022219438,302.4191093444824
80.15798738464196,45.29448050573728,95.89186882972717,80.26323591967275,45.46584654019483,225.42596793174744
80.16071072720229,45.109322070717326,92.88384890556335,80.72047361077955,45.314034429387846,149.2708396911621
80.35878318678738,45.1376934184741,92.75899457931519,80.10345475828893,45.09674718703917,230.4579780101776
80.4166293783851,45.82740333843117,92.8336730003357,80.85937711053066,45.45515592923692,150.45098567008972
80.09688331052803,45.514042545350094,93.1018385887146,80.73038646775535,45.86674196686698,259.5924582481384
80.18086490586643,45.42105517577693,94.0533709526062,80.18688296846335,45.32022853799185,210.73260116577148
63.97493365021205,45.95057443905671,96.98048067092896,80.58041077898389,45.438908721298844,187.39377856254578
80.96083992445574,45.474066200278,95.16776990890503,80.69764179588014,45.86531349829562,164.98766803741455
80.68969608860016,45.53429746121128,87.2059416770935,80.09403909798868,45.16980177999898,250.65081930160522
80.63084210288093,45.658369132074995,92.1309540271759,80.33175091020371,45.33821163949966,172.52230072021484
80.57546440147985,45.76092700340837,91.14016604423523,80.22382241037599,45.96751664582956,174.51266288757324
80.75779483214046,45.771939652374385,91.97580194473267,80.77743096977173,45.44525535080288,154.0591766834259
80.74180128025296,45.46533556403142,91.49859976768494,80.29066234518245,45.74920059737491,181.6190950870514
80.56292296838137,45.35986322656231,92.4465696811676,80.85602615175071,45.22877617420704,190.8532407283783
80.07992457529781,45.512945896418614,91.3955328464508,80.64197213993288,45.85459706528815,151.88957691192627
80.75780575197291,45.53915900539141,95.41917109489441,80.64229309950747,45.81143263579253,149.4046323299408
80.98443147893408,45.6990434256611,96.84163737297058,80.34652652355413,45.13792848205708,236.95010805130005
80.72442328856482,45.04615254374221,95.23879718780518,80.0232563649181,45.03230106849412,188.08421969413757
80.52217421223827,45.19712811568752,95.69517636299133,80.62491276626514,45.45445757915195,198.04796242713928
80.17911722267559,45.71490974044855,96.27599787712097,80.95857088069192,45.24915552157779,291.6118187904358
80.45446508160353,45.29778954551921,90.77652287483215,80.9753512200927,45.57541934588494,242.6688723564148
80.1852591784666,45.31785488137052,93.25449705123901,80.21168240643846,45.668164982249436,211.09254002571106
80.90125315937416,45.86437590817536,90.88001465797424,80.4479812343908,45.21395485498476,231.55919671058655
80.26583389011626,45.65971241312218,82.74443578720093,80.83601780586508,45.52471364967374,210.83944582939148
80.82834248891845,45.36313758995766,85.62311172485352,80.90328077430559,45.4905736147424,174.2933578491211
80.62628128731694,45.98440871246635,85.1636369228363,80.35667348924653,45.1113164347168,224.32172441482544
80.06635390741462,45.60316067667236,85.83868336677551,80.00031396204128,45.22068420182842,211.51754570007324
80.66921736945278,45.8874396066999,96.39826035499573,80.92972751698329,45.35837644714201,205.4292697906494
80.34123504534364,45.35070064659749,95.66347551345825,80.1788437936923,45.48265699367499,215.7887396812439
80.73063629566332,45.90922122959819,87.05819272994995,80.75784086620149,45.255061824376924,259.09311628341675
80.09949948934445,45.55233079614982,90.0642762184143,80.18908287304572,45.75738516811083,212.52403378486633
80.88221797463234,45.68581807953751,89.121164560318,80.84278896438917,45.01067963289245,227.8100345134735
80.05795071867351,45.266363949284596,95.12514209747314,80.18618262501997,45.975610236695275,206.4611520767212
80.48290814793268,45.03587927133026,85.27487897872925,80.04080479329082,45.641924825382034,168.94080710411072
80.99146306413058,45.97966579242279,88.1680314540863,80.94025675381562,45.64672026548641,226.55758261680603
80.54650926007298,45.78255499559259,391.88656854629517,80.97628438104425,45.29801634992111,208.89601302146912
80.074293710348,45.397679847782456,97.96545314788818,80.18644049808103,45.271718434882644,191.26726603507996
80.2443742200121,45.528933426548974,99.20868706703186,80.75453191028845,45.77697232916938,202.4961974620819
80.44962543266456,45.510167518630624,72.87120032310486,80.8830144522313,45.7739928345286,180.3317039012909
80.39513532473416,45.11809095235435,65.65729522705078,80.42888979197778,45.897736484425934,166.8949921131134
80.62623568381673,45.57361182761838,65.80104660987854,80.277814072264,45.424192347100245,138.7283935546875
80.99900465491328,45.1613031339441,64.14836478233337,80.02518340521777,45.3714032108403,141.95023131370544
80.17553538294965,45.2034703193292,65.51669979095459,80.42972271895707,45.06240845700847,178.66196727752686
80.85444512343497,45.45499429739107,66.55427527427673,80.60642221411263,45.713845616872845,187.21084928512573
80.44199891420612,45.58790308695325,65.59946942329407,80.05461772400258,45.825218767467504,121.53395581245422
80.9095640446103,45.04675612344545,66.99522686004639,80.20958060474874,45.27037833917433,143.58547043800354
80.44936901090773,45.24219212990124,64.7436773777008,80.9861680818737,45.18504206520117,188.30040049552917
80.29426806110268,45.29397157154381,66.18353843688965,80.192677207766,45.23806628603813,179.50634908676147
80.40884643492973,45.36830109664356,66.01562595367432,80.8914102473538,45.45829045443037,146.4330930709839
80.10525041001301,45.58653689900916,65.42619514465332,80.28946315508341,45.65734719813344,127.0314416885376
80.83397125467991,45.75679772406693,66.9365713596344,80.10439028701745,45.80910452520948,158.33687043190002
80.80639180470234,45.37850092575627,66.28306365013123,80.88812946075791,45.96357866490666,98.57000970840454
80.12067478225322,45.057547571053874,66.79756474494934,80.81571384779846,45.28135871822536,147.15599131584167
80.70674732156499,45.2653397485351,65.86332273483276,80.34210539353876,45.37613023700794,202.67619919776917
80.53957730102411,45.03363521028382,68.97612762451172,80.88325505858518,45.97855791627779,127.72057509422302
80.48992162596528,45.126222640275955,68.9803078174591,80.382810744457,45.039728445904245,189.58985352516174
80.7365248461424,45.11600503894215,64.28234887123108,80.56157871261559,45.46016735459267,128.95835971832275
80.43937911932107,45.18100646790117,66.96395540237427,80.95465496393115,45.612883834555134,99.84350371360779
80.24456836386162,45.17168456984177,66.63319873809814,80.33690017029306,45.60874015659107,120.19053530693054
80.45510583335499,45.389300833416655,65.58593273162842,80.88268250930128,45.79835806356215,155.3801658153534
80.76863344137428,45.75066612378214,66.12935709953308,80.5282515585954,45.757604063270264,103.60939383506775
80.02913660942863,45.19387426121193,64.44688153266907,80.21341061700173,45.396476443283575,134.45541429519653
80.52707054285383,45.996928533028495,65.6632513999939,80.79184989036332,45.79292869085299,164.2948522567749
80.63330904261011,45.95684970765092,66.35750198364258,80.59471577856971,45.33290428867622,122.10500931739807
80.62619560711619,45.9100464267317,67.34805822372437,80.76892907427111,45.35169796100564,119.038494348526
80.15002899856131,45.51176822884736,66.47299313545227,80.59612604891123,45.112035269737476,156.0110833644867
80.55731597542763,45.901788843403665,65.11784601211548,80.02939266271505,45.96917868949964,174.604572057724
80.13992694891203,45.0672496716702,64.85807013511658,80.9714635352334,45.61268352534819,193.96716356277466
80.24289612133566,45.39702405140724,67.16147994995117,80.96930074861046,45.76040156630762,155.55439686775208
80.24297516072829,45.619481781542845,67.62821769714355,80.56078728474051,45.06988812239143,151.1357307434082
80.7502581633571,45.909486569182036,66.83984923362732,80.28170411602309,45.10797601424571,139.16507959365845
80.95716812815408,45.02234176801585,65.90576267242432,80.87529506374665,45.28375627788313,139.4986228942871
80.96611276089607,45.96674102483803,66.42046904563904,80.12232697736584,45.39361506465434,125.41530394554138
80.42607096553024,45.8222378886926,64.46763944625854,80.08096504161506,45.110011679705735,147.18070721626282
80.08842881153487,45.632231259667606,66.23217177391052,80.79644151148278,45.00554796038358,145.64682149887085
80.31120906061324,45.474268516866914,62.83829069137573,80.3883542035727,45.84314863224057,184.5761637687683
80.0284839787796,45.6814591128325,62.64989185333252,80.3490275438453,45.630413020254025,177.24474382400513
80.16564459142091,45.155849834414084,62.96411991119385,80.86317528548955,45.524649660858586,183.56577706336975
80.30059856583739,45.58249907122399,62.784833669662476,80.60864517993059,45.8131038244112,164.1543960571289
80.04414985798576,45.52352462287581,62.173532485961914,80.75120700680617,45.76759346594554,178.83348941802979
80.7462211095044,45.4989035551755,61.62847065925598,80.2565127670897,45.1841404818428,134.49443292617798
80.87281170518031,45.21070338095433,61.8427951335907,80.03723252558018,45.40013360112772,128.45838975906372
80.96516557217979,45.94900085334666,63.84162425994873,80.83063065918128,45.788759378476186,111.63642048835754
80.945868140514,45.99283767449424,64.87937211990356,80.37559763836987,45.19690056177683,134.39955735206604
80.78598905163904,45.89224061398272,65.7524344921112,80.97074184945768,45.911222060979185,162.42126059532166
80.91317278253291,45.91951730797882,65.38839387893677,80.6500512795867,45.329699505219594,132.0519814491272
80.21260084086566,45.023161916426716,64.62450504302979,80.2419593986998,45.74017193161217,120.23454809188843
80.34360657565571,45.285663762703734,64.53783369064331,80.79332271494667,45.66152190773988,96.28884220123291
80.29381131248238,45.977660208481666,64.02188110351562,80.32266920452366,45.78053156823523,210.72605800628662
80.20897336083499,45.17088205922778,63.790069580078125,80.59426579969755,45.697585585384786,133.57036995887756
80.49938226344466,45.062845705055,64.21811938285828,80.681522961067,45.327288775591455,179.2342505455017
80.17445245385647,45.06077853463762,62.42847919464111,80.37795342037913,45.267975313320335,158.69666624069214
80.5386984390525,45.70017699371192,77.29496502876282,80.68298424273723,45.19527983290271,366.51647758483887
80.32148097178083,45.432394688400564,67.10641431808472,80.63622142280508,45.795831587613634,176.09026193618774
80.06519630503385,45.298226351413405,70.98832893371582,80.4479975465772,45.53919029973139,157.87119102478027
80.5152297556806,45.447849810815796,61.83512043952942,80.71748638247698,45.52200356158136,186.6707899570465
80.5705187174533,45.88736329568292,66.08917999267578,80.87453809441661,45.33186337690307,168.14928531646729
80.55429275699225,45.753880558340825,62.10876226425171,80.44821972209081,45.809500630201626,191.0581295490265
80.83600398724661,45.6680507073288,62.1329071521759,80.3676454293498,45.33475685298458,137.1966998577118
80.28615205173105,45.482396407329134,61.84851861000061,80.56663777901866,45.75634926493683,117.07821822166443
80.86961516202541,45.92383051422689,60.79047870635986,80.99340581173817,45.21693921108209,117.18090200424194
80.84133030784278,45.24278854173372,58.15848731994629,80.33521441551534,45.59861525004169,150.58686065673828
80.23419786612885,45.531511604818206,260.60598158836365,80.6544285527118,45.84203095377711,131.49645733833313
80.36270251413339,45.290551970893375,70.02897214889526,80.00416373473485,45.162856000172326,234.82311487197876
80.14343253201355,45.365356871475115,69.93562483787537,80.77774395216164,45.235380580360356,170.46675610542297
80.46050389784273,45.41749690852794,69.6500608921051,80.13476849218108,45.44306030241734,109.18446111679077
80.97621013557341,45.02833133773197,70.31541848182678,80.7191662071591,45.899476554832916,170.09477829933167
80.11941190872199,45.582545157527875,74.00728178024292,80.51269342251692,45.8983344202195,141.53983640670776
80.20912404364117,45.792821027338505,64.89738154411316,80.9397749546738,45.43773836855672,129.70099639892578
80.35269848685289,45.16864908764683,58.26149010658264,80.70017494257087,45.600291492457245,147.0172781944275
80.62416778647616,45.736863964848,58.27494955062866,80.72453313217397,45.33484492973213,135.10252499580383
80.25821541341566,45.920850675158135,59.28058314323425,80.46556299876619,45.85085073558412,117.61503648757935
80.31467859859549,45.07862933484648,58.61056447029114,80.37597419736295,45.363797678477056,102.58747124671936
80.2616248838458,45.64882567607174,58.72446155548096,80.65732572930466,45.289330291225724,156.21288990974426
80.2471880547887,45.12573364842683,58.05168533325195,80.52026071661959,45.91972517313468,157.54691624641418
80.53771927222374,45.48648511454803,57.866597414016724,80.76430772363659,45.99786805782611,127.22860860824585
80.42136074705081,45.997126172471326,58.022955894470215,80.74022901204216,45.7194632353478,89.43824338912964
